{
    "welcome": "Welcome",
    "signIn": "Please sign in",
    "password": "Password",
    "submit": "Sign In",
    "signUp": "Sign Up",
    "register": "Register",
    "sendEmail": "Send email",
    "forgotPassword": "Forgot Password",
    "firstName": "First name",
    "lastName": "Last name",
    "displayName": "Username",
    "email": "Email Address",
    "phone": "Phone Number",
    "country": "Country",
    "rankings": "Rankings",
    "city": "City",
    "address": "Address",
    "zipCode": "Zip Code",
    "language": "Language",
    "forFree": "for free",
    "keepSignedIn": "Keep me signed in",
    "selectValidCountry": "Please choose a valid country",
    "rankingPoints": "points",
    "freeProducts": "free products",
    "tc1": "By registering, you agree to our",
    "tcLink": "terms and conditions.",
    "enterNewPassword": "Please enter the new password",
    "tc2": "",
    "cookies1": "Please read our",
    "cookiesLink1": "privacy policy",
    "cookies2": "and our notes about our",
    "cookiesLink2": "cookies",
    "signUpSuccess": "Registration successful",
    "updateProfileCTA": "Update Profile",
    "cannotBeBlank": "cannot be blank",
    "noPoints": "No points Available",
    "pointsAvailable": "Points Available",
    "hidePasswords": "Hide Passwords",
    "changePasswordCTA": "Change Password",
    "passwordsDontMatch": "Passwords do not match",
    "updateProfile": "Update Profile",
    "oldPassword": "Old password",
    "newPassword": "New password",
    "repeatPassword": "Repeat password",
    "availablePoints": "Available points",
    "merchantDetails": "Merchant Details",
    "points": "points",
    "merchant": "Merchant",
    "offers": "Offers",
    "pointsPerItem": "Pts/Item",
    "redeemValue": "pts",
    "pointsAwarded": "Points Available",
    "pleaseFillInField": "Please fill in this field",
    "enterEmailAddress": "Enter the email address of your account",
    "backToEditProfile": "Back to Edit Profile",
    "backToLogin": "Back to Login Page",
    "updateProfileSuccess": "Profile was updated successfully",
    "changePasswordSuccess": "Password was changed successfully",
    "resetPasswordEmailSent": "An email with instructions was sent to:",
    "sendPoints": "Send Points",
    "receiverEmail": "Receiver's Email",
    "numberOfPoints": "Number of Points to send",
    "hasAvailableOffer": "You can buy",
    "companyName": "Company",
    "value": "Value",
    "awarded": "Awarded",
    "redeemed": "Redeemed",
    "transferedTo": "Transfered To",
    "transferedFrom": "Transfered From",
    "expires": "Expires",
    "pointsSent": "The points have been sent successfully",
    "cantSendToYourself": "You can't send points to yourself",
    "resetPasswordCTA": "Reset Password",
    "alertsLabel": "Alerts",
    "availableLabel": "Available Points",
    "historyLabel": "History",
    "transferLabel": "Transfer",
    "yourLocation": "Your location",
    "loadMore": "Load more",
    "history": "History",
    "CompanyName": "Company name",
    "Company": "Company name",
    "amount": "Amount",
    "validUntil": "Valid until",
    "AwardedDate": "Awarded date",
    "AwardedPointOfSale": "Awarded POS",
    "RedeemedDate": "Redeemed date",
    "RedeemedPointOfSale": "Redeemed POS",
    "TransferedOutDate": "Transfered out on",
    "TransferedOutPerson": "Transfered to",
    "TransferedInDate": "Received on",
    "TransferedInPerson": "Transfered From",
    "receivedNewPoints1": "You just received",
    "receivedNewPoints2": "points",
    "spentPoints1": "You just spent",
    "spentPoints2": "points",
    "coordsRejected": "In order to use this section, you have to give us permission to access your device's location. Hit Refresh to reload the permissions",
    "waitingForPermissions": "Waiting for coordinates...",
    "loadingPoints": "Loading points...",
    "youHave": "You have",
    "vouchers": "Vouchers",
    "rank": "Rank",
    "routes": {
        "signOut": "Sign Out",
        "signIn": "Sign in",
        "home": "Home",
        "merchants": "Map",
        "history": "Points",
        "editProfile": "Profile"
    },
    "apiErrors": {
        "something_went_wrong": "Something went wrong",
        "server_unreachable": "Could not connect to server. Please try again later",
        "invalid_credentials": "The email address or password is invalid",
        "server_error": "Something went wrong with the server. Please try again later",
        "invalid_old_password": "Invalid old password. Please try again",
        "invalid_new_password": "New password is invalid. Please try again",
        "invalid_new_password_length": "New password must be longer than 8 characters",
        "invalid_client": "The client doesn't exist in the database",
        "session_expired": "Your session has expired. Please log in again",
        "insufficient_points": "There are not enough points on this account for this action",
        "email_already_exists": "The email address is already taken",
        "invalid_email_address": "The email address you entered is invalid",
        "person_to_transfer_to_not_found": "Destination email is invalid"
    },
    "traceHooks": {
        "Awarded": "awarded",
        "Redeemed": "redeemed",
        "TransferedIn": "transfered from",
        "TransferedOut": "transfered to",
        "expired": "expired",
        "validAnother": "available another",
        "days": "days",
        "daysAgo": "days ago"
    }
}
